{
  "formatVersion": 1,
  "database": {
    "version": 3,
    "identityHash": "1de26c8a1dfb6d7b58cbd971ed917cab",
    "entities": [
      {
        "tableName": "ChangCi",
        "createSql": "CREATE TABLE IF NOT EXISTS `${TABLE_NAME}` (`id` INTEGER PRIMARY KEY AUTOINCREMENT, `content` TEXT, `show_time` TEXT, `delay_millis` INTEGER NOT NULL, `cd_id` INTEGER NOT NULL, `order_id` INTEGER NOT NULL)",
        "fields": [
          {
            "fieldPath": "id",
            "columnName": "id",
            "affinity": "INTEGER",
            "notNull": false
          },
          {
            "fieldPath": "content",
            "columnName": "content",
            "affinity": "TEXT",
            "notNull": false
          },
          {
            "fieldPath": "showTime",
            "columnName": "show_time",
            "affinity": "TEXT",
            "notNull": false
          },
          {
            "fieldPath": "delayMillis",
            "columnName": "delay_millis",
            "affinity": "INTEGER",
            "notNull": true
          },
          {
            "fieldPath": "changDuanId",
            "columnName": "cd_id",
            "affinity": "INTEGER",
            "notNull": true
          },
          {
            "fieldPath": "orderId",
            "columnName": "order_id",
            "affinity": "INTEGER",
            "notNull": true
          }
        ],
        "primaryKey": {
          "columnNames": [
            "id"
          ],
          "autoGenerate": true
        },
        "indices": [],
        "foreignKeys": []
      },
      {
        "tableName": "ChangDuan",
        "createSql": "CREATE TABLE IF NOT EXISTS `${TABLE_NAME}` (`id` INTEGER PRIMARY KEY AUTOINCREMENT, `name` TEXT, `juZhong` TEXT, `juMu` TEXT, `offset` INTEGER, `beiZhu` TEXT, `createTime` INTEGER NOT NULL)",
        "fields": [
          {
            "fieldPath": "id",
            "columnName": "id",
            "affinity": "INTEGER",
            "notNull": false
          },
          {
            "fieldPath": "name",
            "columnName": "name",
            "affinity": "TEXT",
            "notNull": false
          },
          {
            "fieldPath": "juZhong",
            "columnName": "juZhong",
            "affinity": "TEXT",
            "notNull": false
          },
          {
            "fieldPath": "juMu",
            "columnName": "juMu",
            "affinity": "TEXT",
            "notNull": false
          },
          {
            "fieldPath": "offset",
            "columnName": "offset",
            "affinity": "INTEGER",
            "notNull": false
          },
          {
            "fieldPath": "beiZhu",
            "columnName": "beiZhu",
            "affinity": "TEXT",
            "notNull": false
          },
          {
            "fieldPath": "createTime",
            "columnName": "createTime",
            "affinity": "INTEGER",
            "notNull": true
          }
        ],
        "primaryKey": {
          "columnNames": [
            "id"
          ],
          "autoGenerate": true
        },
        "indices": [],
        "foreignKeys": []
      },
      {
        "tableName": "JuZhong",
        "createSql": "CREATE TABLE IF NOT EXISTS `${TABLE_NAME}` (`id` INTEGER PRIMARY KEY AUTOINCREMENT, `name` TEXT, `createTime` INTEGER NOT NULL, `updateTime` INTEGER NOT NULL)",
        "fields": [
          {
            "fieldPath": "id",
            "columnName": "id",
            "affinity": "INTEGER",
            "notNull": false
          },
          {
            "fieldPath": "name",
            "columnName": "name",
            "affinity": "TEXT",
            "notNull": false
          },
          {
            "fieldPath": "createTime",
            "columnName": "createTime",
            "affinity": "INTEGER",
            "notNull": true
          },
          {
            "fieldPath": "updateTime",
            "columnName": "updateTime",
            "affinity": "INTEGER",
            "notNull": true
          }
        ],
        "primaryKey": {
          "columnNames": [
            "id"
          ],
          "autoGenerate": true
        },
        "indices": [],
        "foreignKeys": []
      },
      {
        "tableName": "ZiMuSettingsItem",
        "createSql": "CREATE TABLE IF NOT EXISTS `${TABLE_NAME}` (`id` INTEGER PRIMARY KEY AUTOINCREMENT NOT NULL, `content` TEXT, `orderId` INTEGER NOT NULL, `delaySecond` INTEGER NOT NULL, `subContent` TEXT, `zimuSettingsType` TEXT)",
        "fields": [
          {
            "fieldPath": "id",
            "columnName": "id",
            "affinity": "INTEGER",
            "notNull": true
          },
          {
            "fieldPath": "content",
            "columnName": "content",
            "affinity": "TEXT",
            "notNull": false
          },
          {
            "fieldPath": "orderId",
            "columnName": "orderId",
            "affinity": "INTEGER",
            "notNull": true
          },
          {
            "fieldPath": "delaySecond",
            "columnName": "delaySecond",
            "affinity": "INTEGER",
            "notNull": true
          },
          {
            "fieldPath": "subContent",
            "columnName": "subContent",
            "affinity": "TEXT",
            "notNull": false
          },
          {
            "fieldPath": "zimuSettingsType",
            "columnName": "zimuSettingsType",
            "affinity": "TEXT",
            "notNull": false
          }
        ],
        "primaryKey": {
          "columnNames": [
            "id"
          ],
          "autoGenerate": true
        },
        "indices": [],
        "foreignKeys": []
      }
    ],
    "views": [],
    "setupQueries": [
      "CREATE TABLE IF NOT EXISTS room_master_table (id INTEGER PRIMARY KEY,identity_hash TEXT)",
      "INSERT OR REPLACE INTO room_master_table (id,identity_hash) VALUES(42, '1de26c8a1dfb6d7b58cbd971ed917cab')"
    ]
  }
}